<?xml version="1.0" encoding="utf-8"?>
<!-- Generator: Adobe Illustrator 16.0.0, SVG Export Plug-In . SVG Version: 6.00 Build 0)  -->
<!DOCTYPE svg PUBLIC "-//W3C//DTD SVG 1.1//EN" "http://www.w3.org/Graphics/SVG/1.1/DTD/svg11.dtd">
<svg version="1.1" id="Layer_1" xmlns="http://www.w3.org/2000/svg" xmlns:xlink="http://www.w3.org/1999/xlink" x="0px" y="0px"
	 width="20px" height="20px" viewBox="0 0 20 20" enable-background="new 0 0 20 20" xml:space="preserve">
<rect fill="#ED414F" width="20" height="20"/>
<path fill="#FFFFFF" d="M15.615,16.074c0,0.525-0.426,0.949-0.95,0.949H5.333c-0.525,0-0.95-0.424-0.95-0.949v-6.005
	c0-0.524,0.425-0.949,0.95-0.949h9.332c0.524,0,0.95,0.425,0.95,0.949V16.074z"/>
<path fill="#ED414F" d="M9.469,12.068h0.567v3.563h-0.54v-0.497H9.485c-0.073,0.207-0.166,0.357-0.281,0.449
	c-0.114,0.092-0.232,0.137-0.351,0.137c-0.153,0-0.277-0.033-0.375-0.103c-0.097-0.069-0.174-0.166-0.23-0.292
	c-0.056-0.127-0.096-0.279-0.118-0.462c-0.023-0.181-0.035-0.384-0.035-0.604v-2.192h0.569v2.013c0,0.295,0.027,0.514,0.08,0.659
	c0.053,0.144,0.148,0.217,0.284,0.217c0.154,0,0.266-0.079,0.335-0.237c0.07-0.159,0.104-0.419,0.104-0.782h0.002V12.068z
	 M5.488,11.623h0.856v4.011h0.628v-4.011h0.856v-0.91h-2.34V11.623z M14.336,14.531h0.498c-0.079,0.427-0.202,0.732-0.368,0.916
	c-0.164,0.183-0.364,0.275-0.599,0.275c-0.164,0-0.309-0.045-0.441-0.135c-0.13-0.09-0.24-0.216-0.332-0.382
	c-0.088-0.165-0.158-0.362-0.209-0.592c-0.05-0.229-0.074-0.483-0.074-0.759c0-0.267,0.026-0.515,0.076-0.744
	c0.051-0.23,0.123-0.43,0.217-0.596c0.092-0.168,0.205-0.3,0.334-0.396c0.129-0.098,0.271-0.145,0.43-0.145
	c0.175,0,0.328,0.059,0.459,0.176c0.13,0.119,0.238,0.274,0.322,0.473c0.082,0.197,0.143,0.423,0.182,0.675
	c0.037,0.253,0.05,0.517,0.04,0.793h-1.491c0.008,0.316,0.053,0.546,0.139,0.688s0.207,0.214,0.369,0.214
	c0.113,0,0.213-0.05,0.295-0.148C14.266,14.745,14.314,14.641,14.336,14.531z M13.381,13.468h0.924
	c-0.027-0.247-0.074-0.436-0.142-0.563c-0.07-0.129-0.172-0.194-0.312-0.194c-0.09,0-0.164,0.028-0.226,0.08
	c-0.062,0.053-0.108,0.119-0.146,0.196c-0.035,0.08-0.062,0.162-0.076,0.248C13.391,13.322,13.381,13.4,13.381,13.468z
	 M12.475,13.004c0.053,0.237,0.076,0.518,0.076,0.844c0,0.325-0.025,0.607-0.076,0.844c-0.052,0.236-0.117,0.43-0.197,0.582
	c-0.082,0.151-0.174,0.264-0.273,0.338c-0.102,0.072-0.204,0.109-0.309,0.109c-0.152,0-0.288-0.041-0.407-0.123
	c-0.12-0.082-0.211-0.224-0.272-0.421h-0.008v0.456h-0.539v-4.92h0.567v1.792h0.007c0.07-0.185,0.163-0.317,0.283-0.403
	c0.119-0.084,0.242-0.127,0.369-0.127c0.104,0,0.205,0.036,0.309,0.11c0.1,0.072,0.191,0.185,0.273,0.337
	C12.357,12.574,12.423,12.768,12.475,13.004z M11.982,13.855c0-0.151-0.008-0.297-0.027-0.436c-0.02-0.136-0.048-0.259-0.088-0.363
	c-0.04-0.105-0.09-0.189-0.151-0.252c-0.059-0.062-0.132-0.094-0.217-0.094c-0.084,0-0.155,0.032-0.217,0.094
	c-0.06,0.062-0.112,0.146-0.152,0.252c-0.038,0.104-0.067,0.227-0.087,0.363c-0.02,0.141-0.027,0.284-0.027,0.436
	c0,0.146,0.008,0.289,0.027,0.427s0.048,0.259,0.087,0.366c0.04,0.104,0.091,0.188,0.152,0.25c0.063,0.063,0.134,0.094,0.217,0.094
	c0.085,0,0.157-0.032,0.217-0.094c0.062-0.062,0.111-0.146,0.151-0.25c0.04-0.107,0.068-0.228,0.088-0.366
	C11.975,14.146,11.982,14.002,11.982,13.855z"/>
<g>
	<path fill="#FFFFFF" d="M10.95,4.829c-0.087-0.171-0.194-0.306-0.321-0.404c-0.126-0.098-0.272-0.147-0.442-0.147
		c-0.166,0-0.313,0.049-0.44,0.147C9.619,4.523,9.511,4.658,9.425,4.829C9.338,5,9.272,5.202,9.229,5.434
		C9.185,5.665,9.163,5.915,9.163,6.182c0,0.268,0.021,0.515,0.066,0.745c0.042,0.229,0.107,0.431,0.196,0.602
		C9.51,7.7,9.618,7.833,9.747,7.929c0.127,0.096,0.274,0.144,0.44,0.144c0.169,0,0.317-0.047,0.442-0.144
		c0.127-0.097,0.232-0.229,0.321-0.4c0.087-0.171,0.151-0.372,0.196-0.602c0.043-0.229,0.064-0.478,0.064-0.745
		s-0.021-0.517-0.064-0.748C11.104,5.202,11.037,5,10.95,4.829z M10.792,6.769c-0.034,0.171-0.08,0.314-0.142,0.429
		c-0.059,0.115-0.129,0.203-0.208,0.264c-0.08,0.06-0.165,0.092-0.255,0.092s-0.174-0.031-0.254-0.092s-0.15-0.148-0.211-0.264
		C9.663,7.083,9.616,6.94,9.582,6.769C9.547,6.597,9.531,6.402,9.531,6.182c0-0.22,0.017-0.416,0.051-0.586
		c0.033-0.171,0.081-0.315,0.14-0.433c0.061-0.116,0.131-0.206,0.211-0.267s0.165-0.091,0.254-0.091c0.09,0,0.175,0.03,0.255,0.091
		c0.082,0.061,0.15,0.15,0.208,0.267c0.062,0.118,0.107,0.262,0.142,0.433c0.035,0.171,0.052,0.366,0.052,0.586
		C10.844,6.402,10.827,6.597,10.792,6.769z"/>
	<polygon fill="#FFFFFF" points="7.716,5.366 6.842,2.976 6.382,2.976 7.507,5.942 7.507,7.995 7.896,7.995 7.896,5.943 
		9.009,2.977 8.569,2.977 	"/>
	<path fill="#FFFFFF" d="M13.018,4.361v2.053c0,0.164-0.013,0.315-0.039,0.454c-0.024,0.138-0.063,0.259-0.115,0.362
		c-0.051,0.104-0.116,0.182-0.194,0.239C12.59,7.524,12.5,7.554,12.395,7.554c-0.135,0-0.238-0.066-0.314-0.198
		c-0.076-0.13-0.114-0.31-0.114-0.534v-2.46H11.62v2.39c0,0.196,0.011,0.376,0.034,0.538c0.022,0.161,0.063,0.301,0.121,0.418
		c0.058,0.117,0.132,0.207,0.225,0.27s0.208,0.095,0.346,0.095c0.155,0,0.291-0.052,0.404-0.158s0.208-0.27,0.281-0.496h0.008v0.577
		h0.326V4.362L13.018,4.361z"/>
</g>
</svg>
