<?xml version="1.0" encoding="utf-8"?>
<!-- Generator: Adobe Illustrator 16.0.0, SVG Export Plug-In . SVG Version: 6.00 Build 0)  -->
<!DOCTYPE svg PUBLIC "-//W3C//DTD SVG 1.1//EN" "http://www.w3.org/Graphics/SVG/1.1/DTD/svg11.dtd">
<svg version="1.1" id="Layer_1" xmlns="http://www.w3.org/2000/svg" xmlns:xlink="http://www.w3.org/1999/xlink" x="0px" y="0px"
	 width="940px" height="689.667px" viewBox="0 0 940 689.667" enable-background="new 0 0 940 689.667" xml:space="preserve">
<g>
	<path fill="#D8D8D7" d="M937.922,113.826l-1.451-2.175l0.782-6.249c0.058-0.461-0.254-0.904-0.715-1l-6.755-1.501l-0.758-7.566
		c-0.027-0.335-0.244-0.624-0.571-0.755l-3.531-1.414V62.559c0-0.239-0.101-0.464-0.267-0.647l-8.219-8.219
		c-0.17-0.169-0.405-0.258-0.646-0.258c-0.146,0-0.297,0.033-0.43,0.101L906.82,58.2l-8.563-6.235
		c-0.158-0.116-0.354-0.178-0.54-0.178c-0.061,0-0.112,0.007-0.158,0.014c-0.241,0.042-0.47,0.184-0.603,0.395l-9.974,15.037
		l-9.698,33.947l-11.735,1.563c-0.308,0.042-0.56,0.226-0.692,0.497l-3.044,6.072l-55.031,0.178l-12.452,9.156l-9.869,10.68
		c-0.194,0.226-0.278,0.525-0.208,0.825c0.062,0.291,0.266,0.53,0.552,0.647l2.996,1.197l-1.753,2.336
		c-0.158,0.218-0.225,0.482-0.158,0.748l1.478,6.622l-11.972,4.597l-19.301-2.435l-15.603,4.929
		c-0.239,0.082-0.433,0.251-0.542,0.475c-0.11,0.219-0.125,0.469-0.036,0.706l3.052,8.411l-16.554,12.639l-30.022,13.889
		l-19.321,0.095l-5.591-2.801l4.394-5.9l3.253-8.156l2.216-4.42h1.901c0.416,0,0.783-0.285,0.887-0.688l2.443-10.368l-7.393-22.191
		c-0.082-0.246-0.248-0.43-0.476-0.53c-0.124-0.069-0.255-0.103-0.392-0.103c-0.11,0-0.213,0.02-0.316,0.066l-6.903,2.667
		l-5.407,5.406l-2.348-0.465l9.301-15.085l-2.457-19.73c-0.034-0.277-0.213-0.53-0.452-0.681l-16.079-9.15h-9.037
		c-0.497,0-0.907,0.408-0.907,0.91v6.658l-6.679,1.487c-0.416,0.095-0.713,0.464-0.713,0.892v7.757l-1.672,1.252l-0.633-5.005
		c-0.045-0.361-0.286-0.653-0.637-0.761c-0.078-0.028-0.18-0.042-0.271-0.042c-0.251,0-0.492,0.104-0.675,0.295l-9.256,10.317
		l-4.071,23.457l4.061,12.034l0.096,10.281l-7.189,14.513l-6.896,6.134l-5.625-3.31l-4.034-10.394l-0.844-19.487l6.511-29.39
		l6.57-13.97c0.119-0.259,0.119-0.56-0.011-0.802l-1.644-3.284c-0.153-0.306-0.476-0.503-0.816-0.503c-0.022,0-0.044,0-0.073,0
		c-0.371,0.035-0.693,0.292-0.794,0.645l-3.177,10.341l-7.18,4.188l1.324-3.114l10.419-17.804l6.794-4.746v3.175
		c0,0.314,0.149,0.593,0.415,0.764c0.142,0.1,0.323,0.156,0.492,0.156c0.138,0,0.257-0.027,0.383-0.082l21.739-9.668l7.82,4.691
		c0.142,0.081,0.3,0.128,0.471,0.128c0.067,0,0.146-0.006,0.221-0.028c0.238-0.06,0.443-0.21,0.568-0.421l2.158-3.622
		c0,0,10.171,0.781,10.188,0.781c0.31,0,0.597-0.149,0.768-0.414c0.188-0.278,0.195-0.633,0.034-0.925l-5.746-10.688
		c-0.154-0.292-0.463-0.475-0.805-0.475l-2.234,0.02l-8.59-2.339l-1.481-3.692c-0.13-0.346-0.468-0.571-0.838-0.571
		c-0.016,0-16.977,0.993-16.977,0.993l-8.77,6.384l-8.964-0.557l-10.691-9.864c-0.169-0.156-0.389-0.238-0.611-0.238
		c-0.115,0-0.227,0.021-0.344,0.067l-6.96,2.781v-3.245l10.461-12.074c0.284-0.321,0.29-0.809,0.021-1.164
		c-0.187-0.224-0.453-0.339-0.72-0.339c-0.146,0-0.297,0.034-0.43,0.109l-38.269,20.438l-9.798,0.754l-0.723-7.329
		c-0.022-0.287-0.197-0.544-0.441-0.694c-0.146-0.089-0.306-0.135-0.47-0.135c-0.114,0-0.231,0.027-0.346,0.067l-14.69,6.016
		l9.821-11.821l24.66-18.078c0.285-0.212,0.422-0.565,0.346-0.918c-0.061-0.355-0.334-0.625-0.675-0.713l-17.654-4.114l-8.4,1.742
		l-23.387-13.257L489.9,20.6l-7.984-16.777c-0.159-0.321-0.482-0.525-0.829-0.525c-0.058,0-0.117,0.008-0.169,0.02
		c-0.408,0.083-0.714,0.416-0.75,0.832l-0.76,10.653l-446.995-0.81c-0.385,0-0.737,0.237-0.866,0.598
		c-0.131,0.367-0.006,0.775,0.293,1.021l7.546,6.028L35.77,26.7c-0.286,0.402-0.197,0.959,0.206,1.258l2.993,2.242l1.517,9.919
		l-8.869,11.09l-1.404-1.884l4.745-8.952v-4.929c0-0.43-0.292-0.803-0.711-0.898L4.66,27.978c-0.064-0.006-0.128-0.02-0.197-0.02
		c-0.365,0-0.703,0.217-0.85,0.57L1.95,33.246l9.039,28.758c0.121,0.387,0.469,0.645,0.868,0.645h0.592l-0.675,4.712
		c-0.058,0.389,0.151,0.77,0.492,0.947l2.793,1.395v2.161l-1.741-1.732c-0.165-0.171-0.397-0.258-0.635-0.258
		c-0.135,0-0.278,0.028-0.414,0.087c-0.34,0.172-0.548,0.553-0.495,0.934l0.821,6.573c0.043,0.347,0.281,0.639,0.62,0.753
		l9.622,3.203l-7.97,2.448c-0.353,0.114-0.603,0.44-0.638,0.822l-4.052,59.732l-4.149,11.972l4.114,23.075l2.462,9.452L7.68,211.937
		c-0.049,0.239,0,0.496,0.135,0.706l8.896,12.755l2.62,17.656l11.746,16.677L36,263.008c0.155,0.101,0.335,0.15,0.514,0.15
		c0.1,0,0.201-0.008,0.293-0.041c0.267-0.096,0.489-0.305,0.572-0.577l1.422-4.244l5.069,0.512l-3.78,2.691
		c-0.357,0.266-0.478,0.754-0.279,1.163l1.581,3.16l-0.937-0.933c-0.166-0.169-0.397-0.271-0.645-0.271
		c-0.242,0-0.476,0.103-0.645,0.271l-1.636,1.649c-0.243,0.236-0.335,0.584-0.228,0.917l3.63,11.156l7.786,5.453l-0.781,10.168
		c-0.017,0.24,0.064,0.472,0.216,0.654l20.323,24.143l0.827,9.856c0.027,0.367,0.273,0.673,0.624,0.794l31.726,10.579l3.571,5.843
		l6.283,2.284l9.583,8.545l2.465,12.325c0.08,0.429,0.462,0.734,0.888,0.734c0.026,0,37.433-3.365,37.433-3.365l61.217,27.201
		l44.376-1.652c0.49-0.018,0.877-0.412,0.877-0.912v-7.307h28.319l23.307,20.73l3.383,10.902l6.042,9.316l18.083,11.498
		c0.142,0.1,0.314,0.15,0.489,0.15c0.068,0,0.147-0.002,0.204-0.025c0.239-0.055,0.448-0.205,0.574-0.414l8.795-14.393l18.832-1.57
		l12.649,12.51l5.1,14.264l12.185,13.746l9.857,21.369c0.1,0.229,0.296,0.408,0.541,0.496l32.875,10.674
		c0.092,0.025,0.195,0.043,0.283,0.043c0.243,0,0.483-0.104,0.652-0.289c0.249-0.236,0.328-0.611,0.203-0.936l-5.701-15.189
		l0.823-6.568c0.04-0.285-0.062-0.564-0.26-0.754l-1.262-1.264l2.426-0.498c0.486-0.096,0.805-0.551,0.721-1.041l-1.542-9.299
		l14.341-10.355c0.276-0.199,0.412-0.537,0.37-0.863l-0.672-4.719l12.433-0.053l8.212-3.293c0.271-0.115,0.471-0.34,0.553-0.631
		l3.808-15.236l2.183,1.314l-1.855,2.473c-0.239,0.328-0.239,0.781,0.01,1.113c0.177,0.227,0.45,0.346,0.72,0.346
		c0.123,0,0.235-0.02,0.354-0.066l13.508-5.686l26.86,3.162l5.287-3.02l18.078,10.541h9.865c0.31,0,0.594-0.156,0.762-0.408
		l2.729-4.088l9.085,7.572c0.156,0.139,0.372,0.209,0.579,0.209c0.191,0,0.383-0.066,0.553-0.18l3.279-2.461
		c0.217-0.154,0.354-0.41,0.373-0.676c0.019-0.258-0.085-0.521-0.269-0.709l-7.725-7.713l5.397-9.268
		c0.166-0.279,0.166-0.639-0.009-0.918c-0.177-0.271-0.464-0.451-0.778-0.451c-0.018,0-14.859,0.777-14.859,0.777l-0.517-3.088
		l32.649-0.793c0.37-0.012,0.693-0.232,0.825-0.578l2.624-6.828l0.55,8.201c0.02,0.285,0.177,0.543,0.406,0.701
		c0.149,0.092,0.325,0.141,0.512,0.141c0.091,0,0.19-0.004,0.29-0.033l13.58-4.535v0.383c0,0.25,0.096,0.498,0.29,0.658
		c0.167,0.164,0.387,0.252,0.621,0.252c0.024,0,11.188-0.799,11.188-0.799l16.974,14.545c0.171,0.146,0.385,0.225,0.604,0.225
		c0.104,0,0.202-0.021,0.308-0.057l20.036-7.211l19.026,16.643l0.805,24.26c0.011,0.264,0.136,0.518,0.349,0.678
		c0.166,0.139,0.368,0.205,0.567,0.205c0.062,0,2.831-0.551,2.831-0.551l-2.069,7.613c-0.077,0.268-0.02,0.551,0.141,0.773
		l6.58,9.043c0.179,0.236,0.453,0.375,0.743,0.375c0.098,0,0.188-0.016,0.282-0.051l1.593-0.52l5.461,16.375
		c0.076,0.213,0.227,0.389,0.418,0.494l5.45,3.143l4.009,11.18c0.132,0.379,0.483,0.611,0.852,0.611
		c0.101,0,0.205-0.021,0.288-0.055l12.322-4.121c0.3-0.098,0.518-0.328,0.601-0.631l3.312-12.504l0.773-15.959l-23.835-66.768
		l10.272-28.281l5.762-3.292c0.384-0.222,0.554-0.673,0.405-1.086l-1.256-3.746l9.188-0.192l14.18-11.738l5.306-9.483l18.485-7.711
		l5.338-7.899l16.444-6.574c0.347-0.142,0.573-0.469,0.573-0.843v-4.114c0-0.496-0.408-0.905-0.914-0.905h-2.157l2.857-3.438
		c0.183-0.205,0.247-0.476,0.195-0.749c-0.038-0.265-0.208-0.495-0.442-0.626l-3.984-2.277l2.561-0.85l5.364,3.836
		c0.157,0.115,0.352,0.168,0.535,0.168c0.232,0,0.472-0.089,0.646-0.265l6.571-6.574c0.263-0.264,0.343-0.66,0.198-1l-2.466-5.76
		c-0.146-0.328-0.478-0.548-0.842-0.548h-0.033c-0.381,0.012-0.71,0.264-0.822,0.631l-0.949,2.835l-1.483-2.964
		c-0.161-0.307-0.47-0.502-0.816-0.502h-8.021l0.369-3.311l1.086,2.16c0.168,0.327,0.475,0.512,0.817,0.512
		c0.123,0,0.245-0.028,0.363-0.076l5.133-2.421l5.757,1.633c0.088,0.028,0.159,0.041,0.245,0.041c0.231,0,0.446-0.089,0.625-0.243
		c0.229-0.218,0.331-0.539,0.275-0.844l-3.283-16.438c-0.079-0.394-0.402-0.693-0.803-0.735l-5.479-0.551l1.741-1.045
		c0.35-0.204,0.52-0.633,0.401-1.029l-3.152-11.074l2.187-2.921c0.298-0.396,0.225-0.948-0.163-1.261l-16.091-12.875v-0.393
		l13.41,8.185c0.141,0.089,0.308,0.136,0.479,0.136c0.211,0,0.426-0.077,0.595-0.225c0.303-0.266,0.397-0.688,0.24-1.062
		l-3.209-7.023v-15.109l7.767-4.764l-4.587,10.468c-0.108,0.238-0.108,0.498,0,0.735c0.102,0.238,0.296,0.421,0.545,0.503
		l1.708,0.565l-1.505,8.26c-0.051,0.28,0.04,0.564,0.227,0.774l8.625,9.411l-4.637,9.293c-0.102,0.196-0.127,0.423-0.079,0.641
		l1.641,6.559c0.088,0.373,0.407,0.653,0.795,0.688c0.029,0.008,0.056,0.008,0.086,0.008c0.352,0,0.673-0.192,0.818-0.513
		l13.969-28.763c0.098-0.226,0.112-0.478,0.032-0.715l-7.032-18.98l6.975,5.798l0.768,5.413c0.06,0.367,0.329,0.672,0.688,0.754
		c0.072,0.021,0.147,0.028,0.211,0.028c0.292,0,0.567-0.143,0.753-0.375l10.783-15.006l4.116-10.687
		c0.098-0.258,0.064-0.557-0.087-0.803l-3.908-6.273l0.669-3.373l18.215-11.973l23.007-3.289c0.215-0.03,0.421-0.144,0.557-0.305
		l5.009-5.731l1.794,2.392c0.172,0.231,0.454,0.366,0.73,0.366c0.043,0,19.055-3.303,19.055-3.303
		c0.482-0.088,0.812-0.536,0.744-1.032l-0.816-5.748c-0.071-0.427-0.421-0.759-0.854-0.779c-0.021-0.009-0.042-0.009-0.055-0.009
		c-0.41,0-0.771,0.275-0.879,0.668l-1.456,5.085h-3.779l-9.28-12.367l11.995-29.581l16.913-7.249
		c0.213-0.096,0.383-0.266,0.476-0.481l4.455-10.396l7.284,5.819c0.158,0.129,0.372,0.205,0.566,0.205
		c0.137,0,0.282-0.035,0.411-0.094l20.083-10.17l1.637-2.469C938.124,114.533,938.124,114.139,937.922,113.826z"/>
	<path fill="#A7A9AC" d="M481.087,4.219l8.212,17.261l28.763,2.461l23.013,13.148l9.033-1.645l17.269,4.105L542.72,57.626
		l-12.334,14.788l18.091-7.39l0.812,8.219l10.684-0.83l38.632-20.539l-10.683,12.333v4.923l8.222-3.285l10.685,9.864l9.857,0.823
		l9.034-6.58l16.438-0.821l1.635,4.111l9.04,2.467h2.472l5.747,10.675l-10.682-0.816l-2.456,4.104l-8.224-4.927L617.5,94.6v-4.928
		l-8.22,5.752l-10.679,18.083l-2.461,5.752l9.863-5.752l3.275-10.688l1.645,3.285l-6.574,13.978l-6.57,29.579l0.823,19.725
		l4.102,10.68l6.576,4.114l7.403-6.583l7.393-14.795v-10.679l-4.108-12.319l4.108-23.007l9.028-9.865l0.831,6.575l3.299-2.474
		v-8.213l7.381-1.638v-7.397h9.039l15.623,9.036l2.461,19.724l-9.87,15.613l4.12,0.816l5.751-5.746l6.579-2.46l7.387,22.183
		l-2.459,9.85h-2.464l-2.463,4.936l-3.292,8.222l-4.928,6.574l6.565,3.281h19.731l30.399-13.969l17.256-13.141l-3.281-9.044
		l15.604-4.928l18.907,2.462l13.146-4.93l-1.651-7.386l2.477-3.294l-4.103-1.636l9.853-10.688l12.322-9.036h55.066l3.286-6.583
		l12.324-1.636l9.866-34.523l9.855-14.787l9.038,6.575l9.039-4.929l8.221,8.219v31.227l4.109,1.64l0.828,8.218l7.396,1.646
		l-0.827,6.573l1.646,2.467l-1.646,2.469l-19.727,9.852l-8.223-6.566l-4.924,11.501l-17.249,7.391l-12.342,30.411l9.861,13.149
		h4.941l1.638-5.759l0.813,5.759l-18.889,3.28l-2.469-3.28l-5.747,6.574l-23.014,3.282l-18.904,12.335l-0.812,4.096l4.103,6.581
		l-4.103,10.682l-10.692,14.794l-0.806-5.758l-9.872-8.215l8.21,22.195l-13.966,28.747l-1.634-6.566l4.927-9.857l-9.055-9.868
		l1.653-9.036l-2.477-0.828l5.766-13.148l-10.686,6.573v15.624l3.291,7.388l-14.804-9.032v2.458l16.431,13.155L784.317,268
		l3.274,11.503l-4.095,2.468l8.223,0.814l3.276,16.441l-5.751-1.646l-5.748,2.465l-2.462-4.936l-0.831,7.398h9.041l2.475,4.928
		l1.633-4.928l2.465,5.759l-6.572,6.567l-5.748-4.107l-4.93,1.641l5.749,3.297l-4.112,4.929h4.112v4.106l-16.434,6.574l-5.754,8.21
		l-18.084,7.397l-5.754,9.865l-13.97,11.51h-9.863l1.654,4.923l-5.757,3.292l-10.685,28.754l23.832,67.398l-0.819,15.6
		l-3.288,12.322l-12.333,4.117l-4.112-11.504l-5.746-3.297l-5.755-17.236l-2.452,0.812l-6.578-9.035l2.446-9.043l-4.092,0.822
		l-0.82-24.658l-19.729-17.262l-20.541,7.402l-17.261-14.797l-11.505,0.828v-1.641l-14.783,4.932l-0.83-12.334l-4.109,10.684
		l-33.688,0.812l0.813,4.938l15.625-0.822l-5.754,9.871l8.22,8.207l-3.292,2.475l-9.861-8.223l-3.293,4.93H550.1l-18.073-10.68
		l-5.741,3.291l-26.297-3.291l-13.978,5.75l2.463-3.273l-4.098-2.477l-4.12,16.438l-8.213,3.285h-13.141l0.821,5.746l-14.797,10.684
		l1.636,9.857l-4.095,0.824l2.46,2.469l-0.826,6.574l5.756,15.602l-32.87-10.664l-9.851-21.361l-12.334-13.977l-4.919-13.973
		L376.72,419.21l-19.714,1.639l-9.038,14.789l-18.082-11.498l-5.759-9.049l-3.28-10.682l-23.833-21.367h-29.584v8.217l-44.375,1.639
		l-60.807-27.111l-37.807,3.291l-2.458-12.326l-9.868-9.043l-6.574-2.458l-3.281-5.762l-32.044-10.68l-0.823-9.86l-20.548-24.654
		l0.825-10.683l-8.217-5.761l-3.283-10.673l1.641-1.652l4.913,4.938l-4.098-8.213l5.757-4.114l-8.211-0.83l-1.655,4.943
		l-4.927-3.282l-11.51-16.442l-2.458-17.252l-9.044-13.155l4.929-23.007l-2.465-9.855l-4.1-23.016l4.1-11.504l4.099-59.988
		l10.689-3.283L13.506,77.35l-0.819-6.568l3.288,3.277v-4.927l-3.288-1.646l0.819-5.745h-1.645L2.817,32.975l1.644-4.106
		l29.587,6.575v4.929l-4.921,9.036l2.461,3.291l9.865-12.326l-1.64-10.676l-3.295-2.474l4.109-5.746l-8.211-6.583l447.848,0.824
		L481.087,4.219 M481.087,2.388c-0.116,0-0.225,0.014-0.339,0.035c-0.814,0.15-1.418,0.837-1.482,1.665l-0.702,9.805l-446.15-0.817
		c-0.777,0-1.467,0.49-1.724,1.218c-0.257,0.733-0.024,1.55,0.582,2.033l6.855,5.493l-3.092,4.344
		c-0.584,0.81-0.405,1.924,0.398,2.53L38.12,30.7l1.406,9.157l-7.888,9.864l-0.343-0.469l4.36-8.008
		c0.14-0.258,0.219-0.565,0.219-0.87v-4.93c0-0.857-0.597-1.597-1.432-1.783L4.864,27.088c-0.139-0.034-0.27-0.048-0.402-0.048
		c-0.736,0-1.413,0.457-1.694,1.15l-1.643,4.106c-0.151,0.387-0.169,0.829-0.043,1.23l9.043,28.758
		c0.189,0.611,0.683,1.068,1.286,1.216l-0.529,3.727c-0.115,0.781,0.289,1.545,0.989,1.89l0.025,0.021c-0.008,0-0.008,0-0.015,0.005
		c-0.704,0.334-1.111,1.094-1.008,1.863l0.824,6.567c0.082,0.7,0.563,1.292,1.233,1.502l6.913,2.313l-5.241,1.61
		c-0.717,0.219-1.228,0.863-1.274,1.625l-4.098,59.732l-4.018,11.274c-0.1,0.296-0.122,0.625-0.075,0.929l4.105,23.015l2.395,9.572
		l-4.85,22.591c-0.096,0.49,0,1.007,0.287,1.415l8.806,12.795l2.398,16.839c0.043,0.281,0.15,0.545,0.315,0.79l11.504,16.438
		c0.131,0.184,0.295,0.34,0.483,0.461l4.925,3.291c0.301,0.198,0.655,0.312,1.013,0.312c0.197,0,0.4-0.033,0.584-0.1
		c0.543-0.184,0.97-0.614,1.151-1.152l1.182-3.553l1.937,0.195l-1.8,1.292c-0.733,0.524-0.976,1.503-0.578,2.301l0.36,0.704
		c-0.316,0.083-0.599,0.244-0.831,0.477l-1.643,1.646c-0.476,0.478-0.647,1.177-0.452,1.828l3.274,10.683
		c0.126,0.386,0.368,0.722,0.703,0.966l7.37,5.146l-0.747,9.646c-0.037,0.478,0.112,0.947,0.424,1.313l20.178,24.204l0.772,9.281
		c0.052,0.741,0.544,1.357,1.236,1.596L101.019,341l2.94,5.154c0.211,0.368,0.542,0.647,0.938,0.793l6.25,2.354l9.166,8.388
		l2.348,11.739c0.166,0.856,0.921,1.471,1.785,1.471c0.05,0,0.11-0.007,0.166-0.007l37.323-3.244l60.383,26.932
		c0.23,0.107,0.483,0.156,0.74,0.156h0.073l44.369-1.652c0.979-0.025,1.762-0.83,1.762-1.824v-6.395h27.062l22.923,20.564
		l3.135,10.195c0.054,0.164,0.122,0.314,0.208,0.449l5.759,9.045c0.146,0.225,0.334,0.418,0.56,0.562l18.082,11.5
		c0.297,0.18,0.632,0.289,0.979,0.289c0.147,0,0.278-0.02,0.413-0.059c0.479-0.109,0.893-0.41,1.146-0.826l8.552-13.988
		l17.953-1.496l12.265,12.252l4.785,13.57c0.076,0.225,0.193,0.432,0.354,0.596l12.154,13.781l9.729,21.123
		c0.227,0.457,0.617,0.816,1.104,0.975l32.872,10.672c0.185,0.055,0.374,0.096,0.565,0.096c0.489,0,0.975-0.203,1.315-0.564
		c0.484-0.508,0.639-1.236,0.4-1.898l-5.598-15.188l0.764-6.137c0.071-0.564-0.117-1.123-0.521-1.508l-0.057-0.068l0.76-0.156
		c0.966-0.186,1.603-1.117,1.441-2.084l-1.446-8.744l13.878-10.023c0.542-0.389,0.834-1.07,0.74-1.736l-0.522-3.656h11.036
		c0.239,0,0.472-0.051,0.682-0.137l8.209-3.291c0.543-0.213,0.952-0.68,1.092-1.242l2.521-10.049
		c0.006,0.014,0.021,0.025,0.024,0.033c0.354,0.453,0.893,0.707,1.439,0.707c0.235,0,0.476-0.033,0.703-0.137l13.522-5.57
		l25.82,3.23c0.071,0.014,0.148,0.014,0.226,0.014c0.318,0,0.629-0.088,0.905-0.244l4.83-2.766l17.147,10.146
		c0.282,0.168,0.605,0.254,0.932,0.254h9.866c0.615,0,1.187-0.303,1.515-0.803l2.165-3.252l8.303,6.922
		c0.339,0.281,0.749,0.422,1.172,0.422c0.382,0,0.771-0.123,1.098-0.367l3.292-2.461c0.414-0.312,0.685-0.797,0.721-1.332
		c0.045-0.523-0.153-1.049-0.525-1.428l-7.229-7.219l5.044-8.643c0.336-0.584,0.325-1.291-0.016-1.861
		c-0.34-0.559-0.93-0.883-1.56-0.883c-0.037,0-0.069,0-0.1,0.004l-13.991,0.729l-0.212-1.246l31.592-0.773
		c0.745-0.02,1.401-0.475,1.664-1.158l1.14-2.959l0.279,4.066c0.038,0.562,0.323,1.074,0.807,1.391
		c0.296,0.207,0.651,0.314,1.015,0.314c0.189,0,0.381-0.029,0.573-0.098l12.573-4.191c0.103,0.182,0.23,0.357,0.387,0.504
		c0.344,0.318,0.783,0.49,1.246,0.49c0.043,0,0.079,0,0.13,0l10.759-0.766l16.688,14.303c0.333,0.295,0.757,0.436,1.189,0.436
		c0.205,0,0.419-0.033,0.62-0.102l19.528-7.037l18.32,16.031l0.797,23.857c0.021,0.537,0.271,1.031,0.689,1.371
		c0.323,0.26,0.73,0.396,1.137,0.396c0.123,0,0.235-0.021,0.354-0.039l1.204-0.24l-1.685,6.201
		c-0.137,0.529-0.034,1.098,0.289,1.545l6.581,9.043c0.344,0.48,0.909,0.744,1.479,0.744c0.189,0,0.381-0.025,0.569-0.086
		l0.728-0.246l5.178,15.508c0.142,0.434,0.429,0.789,0.828,1.016l5.151,2.963l3.896,10.869c0.269,0.75,0.972,1.211,1.713,1.211
		c0.201,0,0.395-0.035,0.583-0.1l12.329-4.105c0.587-0.201,1.029-0.676,1.184-1.268l3.283-12.334
		c0.036-0.113,0.062-0.252,0.071-0.363l0.818-15.605c0-0.232-0.022-0.477-0.111-0.699l-23.607-66.777l10.221-27.521l5.186-2.951
		c0.752-0.441,1.104-1.346,0.828-2.176l-0.854-2.514h7.329c0.431,0,0.835-0.151,1.168-0.422l13.968-11.498
		c0.161-0.139,0.307-0.312,0.416-0.496l5.438-9.323l17.507-7.158c0.326-0.135,0.602-0.361,0.804-0.646l5.441-7.779l15.933-6.368
		c0.699-0.282,1.148-0.953,1.148-1.695v-4.106c0-1.014-0.813-1.829-1.829-1.829h-0.209l1.613-1.938
		c0.342-0.416,0.49-0.958,0.39-1.498c-0.046-0.242-0.134-0.474-0.271-0.684l2.346,1.676c0.319,0.228,0.687,0.336,1.061,0.336
		c0.474,0,0.929-0.179,1.292-0.53l6.574-6.574c0.523-0.524,0.677-1.318,0.384-2.011l-2.461-5.752
		c-0.169-0.395-0.463-0.708-0.835-0.898l0.298,0.083c0.157,0.054,0.34,0.072,0.498,0.072c0.448,0,0.9-0.168,1.241-0.488
		c0.463-0.429,0.679-1.068,0.547-1.699l-3.271-16.432c-0.16-0.791-0.812-1.374-1.606-1.457l-2.912-0.293
		c0.386-0.454,0.528-1.082,0.362-1.67l-3.035-10.642l1.92-2.561c0.588-0.792,0.444-1.911-0.325-2.516l-6.942-5.563l3.213,1.967
		c0.296,0.177,0.618,0.264,0.957,0.264c0.43,0,0.854-0.149,1.201-0.455c0.601-0.525,0.785-1.387,0.454-2.116l-3.122-7.028V236.14
		l4.847-2.979l-3.423,7.806c-0.203,0.47-0.195,1.006,0.01,1.475c0.204,0.468,0.604,0.832,1.092,0.994l0.961,0.31l-1.36,7.489
		c-0.101,0.562,0.064,1.133,0.441,1.56l8.206,8.933l-4.364,8.737c-0.188,0.393-0.237,0.837-0.141,1.258l1.641,6.576
		c0.179,0.739,0.813,1.294,1.584,1.371c0.062,0.008,0.128,0.008,0.185,0.008c0.695,0,1.339-0.394,1.644-1.033l13.971-28.752
		c0.213-0.45,0.242-0.965,0.067-1.435l-5.833-15.766l4.062,3.386l0.718,5.057c0.11,0.734,0.653,1.342,1.376,1.517
		c0.146,0.027,0.293,0.047,0.431,0.047c0.586,0,1.145-0.277,1.492-0.747l10.68-14.792c0.091-0.136,0.16-0.274,0.215-0.426
		l4.111-10.676c0.215-0.539,0.148-1.139-0.151-1.628l-3.73-5.962l0.533-2.638l17.924-11.688l22.603-3.235
		c0.433-0.054,0.836-0.272,1.119-0.6l4.271-4.88l1.111,1.484c0.351,0.459,0.889,0.732,1.461,0.732c0.104,0,0.203-0.014,0.307-0.025
		l18.897-3.291c0.977-0.17,1.64-1.079,1.493-2.055l-0.816-5.759c-0.124-0.85-0.817-1.502-1.685-1.557
		c-0.046-0.005-0.088-0.005-0.122-0.005c-0.808,0-1.538,0.538-1.763,1.325l-1.255,4.425h-2.646l-8.698-11.59l11.673-28.752
		l16.562-7.103c0.435-0.18,0.773-0.532,0.959-0.953l3.984-9.3l6.348,5.072c0.327,0.264,0.729,0.393,1.137,0.393
		c0.28,0,0.558-0.053,0.817-0.182l19.722-9.867c0.293-0.135,0.531-0.345,0.716-0.618l1.635-2.468c0.41-0.61,0.41-1.406,0-2.02
		l-1.259-1.897l0.736-5.908c0.113-0.932-0.499-1.794-1.42-2.006l-6.111-1.357l-0.688-6.894c-0.068-0.68-0.503-1.264-1.146-1.523
		l-2.958-1.174v-29.99c0-0.491-0.192-0.946-0.534-1.3l-8.216-8.22c-0.354-0.345-0.822-0.521-1.298-0.521
		c-0.297,0-0.601,0.069-0.878,0.217l-8.023,4.371l-8.108-5.887c-0.31-0.226-0.678-0.347-1.065-0.347
		c-0.11,0-0.217,0.012-0.327,0.025c-0.479,0.095-0.916,0.376-1.198,0.79l-9.852,14.779c-0.107,0.162-0.186,0.333-0.236,0.517
		l-9.54,33.361l-11.133,1.488c-0.604,0.076-1.123,0.45-1.399,0.993l-2.772,5.568h-53.942c-0.396,0-0.768,0.117-1.078,0.348
		l-12.32,9.042c-0.093,0.068-0.184,0.148-0.263,0.239l-9.869,10.68c-0.41,0.439-0.562,1.052-0.433,1.644
		c0.135,0.576,0.537,1.067,1.101,1.293l1.896,0.746l-1.046,1.387c-0.32,0.427-0.433,0.97-0.32,1.495l1.305,5.838l-11.233,4.218
		l-18.464-2.408c-0.07-0.005-0.152-0.011-0.229-0.011c-0.181,0-0.374,0.026-0.552,0.081l-15.596,4.935
		c-0.478,0.152-0.865,0.491-1.088,0.933c-0.22,0.449-0.247,0.967-0.078,1.427l2.814,7.786l-16.016,12.203l-29.862,13.719h-18.903
		l-4.225-2.113l3.611-4.821c0.102-0.13,0.184-0.271,0.244-0.414l3.286-8.221l1.898-3.788h1.334c0.833,0,1.57-0.564,1.77-1.379
		l2.462-9.859c0.089-0.338,0.077-0.686-0.038-1.018l-7.385-22.195c-0.166-0.46-0.495-0.847-0.954-1.071
		c-0.244-0.116-0.516-0.171-0.781-0.171c-0.213,0-0.435,0.034-0.639,0.116l-6.577,2.463c-0.247,0.086-0.474,0.23-0.656,0.414
		l-5.062,5.063l-0.547-0.109l8.449-13.368c0.221-0.358,0.312-0.788,0.271-1.201l-2.469-19.722c-0.074-0.573-0.4-1.073-0.903-1.355
		l-15.62-9.034c-0.28-0.162-0.59-0.253-0.91-0.253h-9.039c-1.008,0-1.818,0.826-1.818,1.83v5.923l-5.966,1.33
		c-0.833,0.193-1.425,0.935-1.425,1.784v7.301l-0.048,0.042l-0.438-3.454c-0.086-0.715-0.579-1.299-1.262-1.516
		c-0.179-0.054-0.361-0.089-0.554-0.089c-0.503,0-0.988,0.204-1.348,0.592l-9.031,9.863c-0.229,0.251-0.378,0.574-0.439,0.913
		l-4.119,23.013c-0.045,0.298-0.022,0.605,0.061,0.898l4.027,12.045v9.953l-7.05,14.087l-6.118,5.438l-4.9-3.067l-3.773-9.828
		l-0.801-19.188l6.486-29.153l6.481-13.786c0.24-0.51,0.225-1.094-0.019-1.598l-1.646-3.282c-0.314-0.626-0.943-1.006-1.636-1.006
		c-0.042,0-0.095,0-0.151,0.008c-0.743,0.059-1.378,0.569-1.598,1.277l-3.066,10l-4.474,2.618l0.286-0.68l10.377-17.527l5.026-3.515
		v1.419c0,0.621,0.311,1.198,0.83,1.539c0.305,0.191,0.639,0.292,0.988,0.292c0.257,0,0.512-0.048,0.747-0.157l21.318-9.477
		l7.403,4.448c0.285,0.17,0.612,0.258,0.942,0.258c0.147,0,0.3-0.021,0.438-0.062c0.471-0.11,0.878-0.416,1.129-0.823l1.883-3.149
		l9.548,0.737c0.048,0.006,0.093,0.006,0.138,0.006c0.615,0,1.192-0.307,1.54-0.824c0.358-0.563,0.39-1.277,0.067-1.861
		l-5.744-10.681c-0.314-0.598-0.932-0.965-1.609-0.965h-2.225l-7.924-2.163l-1.307-3.273c-0.286-0.685-0.954-1.146-1.691-1.146
		c-0.036,0-0.063,0-0.097,0.007l-16.438,0.821c-0.357,0.015-0.693,0.142-0.987,0.348l-8.479,6.173l-8.551-0.706l-10.224-9.438
		c-0.35-0.318-0.793-0.482-1.236-0.482c-0.227,0-0.454,0.046-0.687,0.124l-5.71,2.29v-1.55l10.234-11.823
		c0.577-0.666,0.6-1.637,0.044-2.326c-0.353-0.448-0.886-0.694-1.425-0.694c-0.295,0-0.583,0.077-0.857,0.219l-38.287,20.371
		l-8.521,0.66l-0.645-6.453c-0.06-0.572-0.381-1.089-0.876-1.381c-0.285-0.171-0.615-0.258-0.938-0.258
		c-0.233,0-0.471,0.042-0.693,0.129l-11.287,4.622l7.484-8.979l24.477-17.95c0.57-0.42,0.843-1.134,0.708-1.833
		c-0.144-0.693-0.675-1.244-1.366-1.414l-17.268-4.114c-0.142-0.028-0.286-0.049-0.424-0.049c-0.11,0-0.216,0.015-0.327,0.035
		l-8.372,1.521l-22.433-12.823c-0.23-0.13-0.487-0.203-0.747-0.226l-27.721-2.385l-7.767-16.303
		C482.431,2.784,481.773,2.388,481.087,2.388 M786.645,300.692l2.729-1.176l4.117,1.176c-0.043,0-0.091,0-0.137,0h-0.076
		c-0.75,0.026-1.414,0.53-1.648,1.244l-0.252,0.746l-0.497-0.983c-0.31-0.62-0.94-1.006-1.632-1.006L786.645,300.692
		L786.645,300.692z"/>
	<path fill="#E5E5E4" d="M527.111,686.363c-0.239,0-0.475-0.096-0.646-0.27l-19.726-19.723l-17.749-6.352l-6.137,0.875
		l-18.625,8.953c-0.125,0.062-0.26,0.092-0.396,0.092c-0.08,0-0.158-0.014-0.233-0.029l-24.656-6.582l-15.833-9.129l-35.961-10.605
		l-15.143-13.332l-23.431-5.559l-8.65-8.455l-15.43-8.893l-9.159-7.475l-3.582-11.125c-0.149-0.457,0.092-0.949,0.547-1.121
		l5.4-2.021l-2.499-3.133c-0.233-0.271-0.261-0.66-0.104-0.98l3.933-7.869l-8.089-22.643l-11.21-8.633l-9.231-13.338l-15.412-12.121
		c-0.2-0.16-0.321-0.369-0.346-0.611l-0.8-7.043l-5.468-4.693l-10.357-3.119c-0.384-0.117-0.647-0.479-0.647-0.877v-3.66
		l-3.722,1.244c-0.092,0.041-0.191,0.051-0.29,0.051c-0.338,0-0.656-0.191-0.815-0.504l-2.479-4.93
		c-0.115-0.252-0.123-0.545-0.015-0.795l3.822-8.369l-20.799-15.998l-2.655-10.621l-7.647-1.529l-11.982-12.604l-14.91-23.967
		l-7.491-22.387l-9.543-6.961l-6.016,0.191l-10.941-7.832l6.895,32.205l3.23,7.203l10.438,8.717l3.341,7.297l3.638,0.727
		c0.261,0.053,0.489,0.213,0.625,0.463l21.563,39.117l-0.259-1.551c-0.053-0.359,0.098-0.703,0.393-0.908
		c0.149-0.104,0.343-0.156,0.515-0.156c0.155,0,0.325,0.037,0.47,0.119l4.111,2.469l15.055,42.855l2.561,1.287l2.868-1.445
		c0.132-0.07,0.267-0.098,0.416-0.098c0.246,0,0.49,0.098,0.664,0.293l12.322,13.154c0.18,0.191,0.269,0.477,0.239,0.734
		l-0.818,6.574c-0.034,0.25-0.179,0.488-0.399,0.637l-7.389,4.939c-0.16,0.107-0.336,0.154-0.51,0.154c-0.062,0-0.132,0-0.188-0.018
		c-0.251-0.049-0.463-0.193-0.583-0.412l-8.229-13.154L211.203,513.8h-6.229c-0.256,0-0.5-0.109-0.671-0.307
		c-0.173-0.186-0.255-0.432-0.231-0.695l1.636-17.254l-3.231-8.646l-10.35-6.955l-2.109-5.27l-1.519,2.521
		c-0.169,0.279-0.461,0.449-0.78,0.449c-0.059,0-4.274-0.848-4.274-0.848l-23.373-16.592c-0.237-0.178-0.373-0.445-0.373-0.748
		v-2.455c0-0.264,0.107-0.502,0.302-0.691c0.173-0.143,0.388-0.217,0.606-0.217c0.04,0,12.358,1.541,12.358,1.541l1.479-11.863
		L159.903,428l-11.208-5.516c-0.25-0.127-0.435-0.355-0.489-0.637l-2.271-11.309l-1.475,0.482c-0.091,0.033-0.188,0.049-0.29,0.049
		c-0.382,0-0.725-0.232-0.863-0.605l-9.858-27.941l-9.729-12.902c-0.206-0.267-0.239-0.612-0.101-0.92
		c0.129-0.304,0.421-0.51,0.758-0.537l37.794-3.289l61.267,27.203l43.081-1.689v-7.348c0-0.498,0.408-0.912,0.915-0.912h29.584
		c0.228,0,0.445,0.088,0.609,0.23l23.822,21.371l3.554,11.09l5.656,8.824l17.014,10.721l8.559-13.986
		c0.153-0.25,0.405-0.414,0.703-0.434c0,0,19.758-1.65,19.786-1.65c0.24,0,0.472,0.088,0.647,0.266l13.157,13.146l5.144,14.311
		l12.151,13.672l9.828,21.227l32.493,10.551c0.373,0.121,0.634,0.471,0.634,0.863v5.76c0,0.375-0.227,0.715-0.573,0.84l-7.862,3.158
		l-4.786,11.152l3.354,22.525l-0.817,21.529l8.041,10.939c0.132,0.168,0.191,0.396,0.167,0.605l-0.791,8.711l12.146,16.973
		l5.842,13.32l7.168,6.256l10.352,3.105l8.938,6.445l32.447-8.926l13.24,3.982l4.076-2.727l-0.715-4.342
		c-0.062-0.365,0.108-0.732,0.429-0.928l7.883-4.73l7.312-30.855c0.08-0.336,0.331-0.588,0.657-0.676l36.978-9.848l5.314,0.795
		c0.439,0.076,0.766,0.457,0.766,0.904v2.213l2.623-2.107c0.174-0.123,0.365-0.193,0.573-0.193c0.056,0,8.389,1.648,8.389,1.648
		c0.239,0.045,0.445,0.182,0.577,0.385l3.294,4.934c0.183,0.285,0.196,0.648,0.049,0.945l-13.586,25.564l1.775,1.184
		c0.239,0.143,0.377,0.396,0.411,0.658c0.026,0.279-0.072,0.553-0.269,0.746l-1.822,1.816l1.822,1.814
		c0.229,0.23,0.32,0.553,0.242,0.867l-4.931,20.539c-0.088,0.365-0.387,0.637-0.759,0.697c-0.048,0-0.091,0-0.123,0
		c-0.334,0-0.639-0.176-0.798-0.469l-4.116-7.393l0.586-4.449h-0.896l-3.036,5.275c-0.105,0.203-0.283,0.354-0.495,0.42
		l-2.146,0.715l-4.762,7.926c-0.115,0.205-0.308,0.355-0.532,0.41l-5.746,1.641l-26.554,0.039l-0.731,7.404
		c-0.024,0.248-0.155,0.473-0.352,0.631c-0.159,0.115-0.354,0.184-0.561,0.184c-0.05,0-7.021-1.154-7.021-1.154l10.104,9.438
		l4.354,11.02c0.104,0.279,0.079,0.586-0.088,0.822c-0.161,0.252-0.422,0.408-0.716,0.422l-14.336,0.805l-10.428,16.031
		l-2.351,7.988c-0.095,0.295-0.347,0.533-0.657,0.611C527.25,686.353,527.184,686.363,527.111,686.363"/>
	<path fill="#F1F2F2" d="M198.474,453.576l-8.313-15.082c-0.135-0.248-0.363-0.41-0.625-0.463l-3.638-0.727l-3.341-7.297
		l-10.439-8.717l-3.23-7.203l-6.894-32.205l1.099,0.787c-0.733-5.754-0.572-12.618-0.974-13.707
		c-0.364-0.991-0.798-2.872-1.04-3.989l-36.703,3.194c-0.337,0.026-0.629,0.232-0.759,0.537c-0.138,0.306-0.104,0.652,0.102,0.918
		l9.729,12.902l9.858,27.943c0.139,0.373,0.481,0.605,0.863,0.605c0.102,0,0.198-0.018,0.29-0.049l1.475-0.482l2.271,11.307
		c0.055,0.281,0.239,0.512,0.489,0.637l11.208,5.518l14.541,17.77l-0.973,7.803H198.474L198.474,453.576z"/>
	<path fill="#A7A9AC" d="M162.25,365.789l60.801,27.127l44.385-1.646v-8.211h29.581l23.825,21.354l3.293,10.682l5.757,9.051
		l18.078,11.498l9.035-14.789l19.723-1.65l13.158,13.152l4.914,13.969l12.34,13.979l9.853,21.359l32.875,10.674v5.76l-8.212,3.291
		l-4.948,11.502l3.292,23.02l-0.815,21.354l8.203,11.514l-0.822,9.029l12.341,17.258l5.746,13.156l7.399,6.58l10.689,3.281
		l9.024,6.564l32.886-9.025l13.135,4.096l4.938-3.289l-0.816-4.93l8.2-4.934l7.405-31.223l36.973-9.846l4.939,0.812v4.104
		l4.11-3.275l8.204,1.641l3.294,4.926L601.053,600l2.48,1.641l-2.48,2.465l2.48,2.461l-4.93,20.547l-4.12-7.395l0.827-4.918h-2.461
		l-3.297,5.746l-2.451,0.809l-4.937,8.229l-5.749,1.645H549.28l-0.804,8.217l-9.871-1.641l12.316,11.498l4.129,10.684l-14.8,0.828
		l-10.682,16.428l-2.46,8.209l-19.729-19.709l-18.083-6.564l-6.561,0.809l-18.909,9.049l-24.648-6.584l-15.615-9.041l-36.157-10.686
		l-14.793-13.139l-23.833-5.764l-8.218-8.199l-15.609-9.057l-9.043-7.389l-3.287-10.674l6.582-2.475l-3.294-4.113l4.111-8.213
		l-8.222-23.014l-11.506-9.051l-9.041-13.133l-15.602-12.326l-0.834-7.402l-5.749-4.918l-10.679-3.301v-4.932l-4.93,1.652
		l-2.471-4.943l4.124-9.021l-21.375-16.445l-2.476-10.676l-8.214-1.639l-11.499-12.336l-14.794-23.832l-7.403-22.186l-9.858-7.402
		h-6.564l-12.329-9.027l7.391,34.508l3.288,7.396l10.684,9.037l3.295,7.391l4.094,0.834l22.196,40.25l1.642,1.65l-0.821-4.928
		l4.114,2.463l14.778,42.727l3.3,1.65l3.278-1.65l12.325,13.168l-0.82,6.564l-7.389,4.939l-8.218-13.154l-22.189-19.73h-6.575
		l1.64-17.262l-3.283-9.027l-10.684-7.41l-2.469-6.553l-2.46,4.098l-4.104-0.822l-23.012-16.447v-2.455l13.148,1.643l1.645-13.15
		l-14.793-18.066l-11.508-5.758l-2.47-12.328l-2.459,0.822l-9.858-27.938l-9.86-13.154L162.25,365.789 M162.25,363.967
		c-0.06,0-0.108,0-0.155,0.007l-37.812,3.275c-0.654,0.062-1.239,0.472-1.504,1.08c-0.272,0.606-0.19,1.305,0.209,1.842
		l9.689,12.934l9.77,27.662c0.264,0.754,0.966,1.225,1.719,1.225c0.188,0,0.39-0.033,0.582-0.104l0.491-0.164l2.072,10.295
		c0.111,0.564,0.459,1.033,0.969,1.285l11.165,5.57l14.04,17.172l-1.318,10.557l-11.338-1.412c-0.065,0-0.146-0.016-0.225-0.016
		c-0.441,0-0.862,0.158-1.204,0.463c-0.397,0.346-0.622,0.842-0.622,1.365v2.455c0,0.592,0.282,1.145,0.763,1.494l23.014,16.436
		c0.21,0.158,0.454,0.258,0.711,0.305l4.09,0.824c0.118,0.02,0.242,0.041,0.364,0.041c0.626,0,1.229-0.334,1.563-0.885l0.52-0.863
		l1.133,3.025c0.137,0.354,0.365,0.652,0.675,0.854l10.208,7.074l2.941,8.104l-1.602,16.846c-0.048,0.512,0.122,1.02,0.47,1.408
		c0.342,0.373,0.836,0.59,1.348,0.59h5.888l21.464,19.086l8.076,12.938c0.268,0.416,0.684,0.713,1.175,0.814
		c0.121,0.029,0.252,0.047,0.377,0.047c0.361,0,0.708-0.105,1.014-0.312l7.388-4.949c0.442-0.291,0.733-0.766,0.797-1.287
		l0.827-6.557c0.061-0.543-0.113-1.08-0.476-1.473l-12.324-13.172c-0.361-0.363-0.84-0.57-1.34-0.57
		c-0.271,0-0.553,0.055-0.821,0.191l-2.457,1.244l-1.818-0.912l-14.539-42.016c-0.146-0.424-0.417-0.748-0.791-0.982l-4.104-2.465
		c-0.292-0.162-0.615-0.248-0.942-0.248c-0.36,0-0.717,0.102-1.028,0.318c-0.087,0.047-0.171,0.119-0.244,0.186l-20.144-36.545
		c-0.257-0.471-0.708-0.809-1.238-0.902l-3.17-0.639l-2.917-6.543c-0.106-0.244-0.278-0.471-0.489-0.641l-10.355-8.775l-3.047-6.846
		l-6.339-29.629l8.455,6.199c0.311,0.24,0.694,0.361,1.077,0.361h5.953l8.924,6.688l7.219,21.648
		c0.043,0.139,0.107,0.258,0.185,0.387l14.792,23.822c0.062,0.098,0.136,0.191,0.213,0.281l11.498,12.33
		c0.262,0.285,0.602,0.471,0.982,0.545l7.057,1.424l2.198,9.516c0.097,0.412,0.335,0.783,0.664,1.037l20.229,15.562l-3.52,7.705
		c-0.229,0.5-0.217,1.084,0.035,1.58l2.469,4.934c0.315,0.633,0.962,1.004,1.629,1.004c0.191,0,0.389-0.025,0.576-0.098l2.524-0.834
		v2.389c0,0.809,0.525,1.508,1.286,1.748l10.324,3.178l4.914,4.225l0.752,6.676c0.06,0.488,0.301,0.93,0.685,1.23l15.389,12.148
		l8.879,12.918c0.105,0.156,0.228,0.289,0.377,0.402l11.088,8.723l7.783,21.771l-3.767,7.521c-0.31,0.641-0.233,1.395,0.214,1.959
		l1.712,2.141l-4.223,1.586c-0.897,0.34-1.38,1.332-1.106,2.25l3.296,10.688c0.102,0.342,0.314,0.645,0.591,0.873l9.041,7.393
		l15.645,9.084l8.046,8.045c0.238,0.236,0.545,0.404,0.871,0.479l23.385,5.66l14.443,12.846c0.209,0.166,0.447,0.295,0.702,0.383
		l35.943,10.615l15.431,8.938c0.136,0.074,0.286,0.145,0.433,0.186l24.659,6.572c0.156,0.055,0.314,0.061,0.472,0.061
		c0.271,0,0.542-0.061,0.794-0.178l18.635-8.91l5.837-0.73l17.282,6.299l19.435,19.418c0.349,0.342,0.813,0.531,1.298,0.531
		c0.147,0,0.301-0.021,0.446-0.059c0.622-0.16,1.113-0.629,1.301-1.242l2.378-7.957l10.034-15.445l13.89-0.762
		c0.579-0.041,1.114-0.346,1.419-0.836c0.327-0.488,0.386-1.102,0.172-1.645l-4.113-10.688c-0.102-0.26-0.261-0.49-0.467-0.68
		l-7.886-7.371l3.889,0.645c0.096,0.023,0.204,0.023,0.305,0.023c0.393,0,0.79-0.125,1.105-0.367
		c0.412-0.316,0.661-0.779,0.715-1.271l0.646-6.582h25.474c0.169,0,0.33-0.02,0.509-0.068l5.746-1.641
		c0.435-0.117,0.829-0.426,1.064-0.818l4.582-7.627l1.822-0.619c0.425-0.15,0.78-0.43,1.002-0.832l1.71-2.977l-0.164,0.949
		c-0.067,0.418,0.003,0.824,0.214,1.197l4.104,7.391c0.333,0.586,0.939,0.934,1.601,0.934c0.072,0,0.159,0,0.239-0.006
		c0.745-0.111,1.358-0.656,1.529-1.391l4.937-20.545c0.151-0.609-0.039-1.271-0.491-1.719l-1.177-1.17l1.177-1.178
		c0.393-0.387,0.594-0.926,0.532-1.459c-0.057-0.559-0.355-1.057-0.81-1.355l-1.096-0.727l13.2-24.828
		c0.319-0.594,0.282-1.312-0.093-1.865l-3.288-4.939c-0.271-0.393-0.692-0.684-1.172-0.775l-8.201-1.631
		c-0.121-0.029-0.248-0.037-0.357-0.037c-0.412,0-0.815,0.141-1.141,0.395l-1.146,0.912v-0.307c0-0.895-0.646-1.65-1.531-1.803
		l-4.932-0.82c-0.091-0.021-0.2-0.025-0.303-0.025c-0.154,0-0.31,0.021-0.467,0.068l-36.977,9.848
		c-0.654,0.17-1.157,0.689-1.308,1.342l-7.23,30.484l-7.55,4.535c-0.636,0.385-0.978,1.121-0.854,1.865l0.624,3.771l-3.225,2.137
		l-12.31-3.844c-0.18-0.062-0.361-0.088-0.541-0.088c-0.173,0-0.33,0.025-0.485,0.066l-32.035,8.812l-8.315-6.041
		c-0.17-0.133-0.347-0.219-0.532-0.273l-10.313-3.178l-6.807-6.041l-5.58-12.789c-0.053-0.125-0.12-0.238-0.201-0.332
		l-11.933-16.699l0.756-8.371c0.042-0.434-0.078-0.869-0.328-1.229l-7.847-10.998l0.796-20.732c0-0.107,0-0.225-0.021-0.33
		l-3.216-22.5l4.442-10.346l7.515-3.006c0.693-0.287,1.146-0.951,1.146-1.697v-5.762c0-0.777-0.508-1.486-1.264-1.727
		l-32.122-10.438l-9.511-20.641c-0.082-0.158-0.172-0.297-0.287-0.436l-12.103-13.713l-4.802-13.631
		c-0.092-0.266-0.238-0.496-0.431-0.68l-13.159-13.162c-0.351-0.338-0.805-0.529-1.292-0.529c-0.047,0-0.1,0.008-0.153,0.008
		l-19.715,1.648c-0.585,0.049-1.105,0.369-1.406,0.865l-8.066,13.195l-16.169-10.285l-5.417-8.477l-3.203-10.455
		c-0.101-0.322-0.282-0.602-0.527-0.826l-23.82-21.371c-0.339-0.299-0.772-0.463-1.223-0.463h-29.576
		c-1.021,0-1.825,0.816-1.825,1.836v6.449l-42.203,1.559l-60.415-26.941C162.76,364.011,162.508,363.967,162.25,363.967"/>
	<g>
		<path fill="#FFFFFF" d="M181.878,322.119v12.021c0,2.134-0.619,3.803-1.855,5.006c-1.237,1.202-2.96,1.804-5.172,1.804
			c-2.152,0-3.831-0.604-5.038-1.811s-1.811-2.891-1.811-5.051v-11.97h1.308v12.021c0,1.786,0.496,3.179,1.487,4.174
			c0.991,0.996,2.393,1.493,4.206,1.493c1.771,0,3.143-0.488,4.117-1.468c0.975-0.979,1.462-2.335,1.462-4.072v-12.148
			L181.878,322.119L181.878,322.119z"/>
		<path fill="#FFFFFF" d="M197.189,335.906c0,1.55-0.569,2.779-1.709,3.685c-1.139,0.905-2.654,1.359-4.542,1.359
			c-2.271,0-4.011-0.25-5.222-0.75v-1.296c1.338,0.567,3.045,0.851,5.121,0.851c1.525,0,2.733-0.349,3.628-1.048
			c0.895-0.7,1.34-1.616,1.34-2.751c0-0.702-0.148-1.286-0.444-1.748c-0.295-0.46-0.78-0.882-1.449-1.263
			c-0.669-0.382-1.651-0.792-2.948-1.233c-1.897-0.652-3.208-1.357-3.933-2.115c-0.725-0.758-1.086-1.769-1.086-3.03
			c0-1.389,0.544-2.522,1.632-3.399c1.089-0.878,2.489-1.316,4.2-1.316c1.744,0,3.384,0.331,4.917,0.992l-0.471,1.118
			c-1.542-0.644-3.016-0.967-4.422-0.967c-1.373,0-2.465,0.318-3.278,0.954c-0.813,0.635-1.219,1.5-1.219,2.593
			c0,0.687,0.125,1.249,0.375,1.69c0.25,0.441,0.658,0.836,1.227,1.188c0.568,0.352,1.542,0.773,2.922,1.265
			c1.449,0.5,2.538,0.984,3.266,1.455s1.26,1.004,1.595,1.602S197.189,335.059,197.189,335.906z"/>
		<path fill="#FFFFFF" d="M210.062,334.14h-7.548l-2.593,6.557h-1.435l7.472-18.654h0.826l7.319,18.654h-1.461L210.062,334.14z
			 M202.983,332.971h6.646l-2.528-6.697c-0.211-0.525-0.466-1.254-0.762-2.186c-0.229,0.813-0.478,1.55-0.75,2.211L202.983,332.971z
			"/>
	</g>
	<g>
		<path fill="#FFFFFF" d="M236.567,434.953l-6.925-17.15h-0.102c0.068,1.049,0.102,2.125,0.102,3.229v13.924h-1.245v-18.576h2.008
			l6.582,16.342h0.076l6.582-16.342h1.958v18.576h-1.309v-14.076c0-0.982,0.05-2,0.153-3.051h-0.103l-6.95,17.127L236.567,434.953
			L236.567,434.953z"/>
		<path fill="#FFFFFF" d="M261.003,434.953h-10.153v-18.576h10.153v1.195h-8.857v7.025h8.362v1.195h-8.362v7.967h8.857V434.953z"/>
		<path fill="#FFFFFF" d="M276.582,434.953h-1.487l-5.49-8.666l-5.59,8.666h-1.436l6.253-9.682l-5.68-8.895h1.461l5.02,7.953
			l5.095-7.953h1.385l-5.757,8.867L276.582,434.953z"/>
	</g>
</g>
</svg>
